\relax 
\providecommand\hyper@newdestlabel[2]{}
\providecommand\HyperFirstAtBeginDocument{\AtBeginDocument}
\HyperFirstAtBeginDocument{\ifx\hyper@anchor\@undefined
\global\let\oldcontentsline\contentsline
\gdef\contentsline#1#2#3#4{\oldcontentsline{#1}{#2}{#3}}
\global\let\oldnewlabel\newlabel
\gdef\newlabel#1#2{\newlabelxx{#1}#2}
\gdef\newlabelxx#1#2#3#4#5#6{\oldnewlabel{#1}{{#2}{#3}}}
\AtEndDocument{\ifx\hyper@anchor\@undefined
\let\contentsline\oldcontentsline
\let\newlabel\oldnewlabel
\fi}
\fi}
\global\let\hyper@last\relax 
\gdef\HyperFirstAtBeginDocument#1{#1}
\providecommand\HyField@AuxAddToFields[1]{}
\providecommand\HyField@AuxAddToCoFields[2]{}
\@writefile{toc}{\contentsline {chapter}{\numberline {1}Copyright}{2}{chapter.1}}
\@writefile{lof}{\addvspace {10\p@ }}
\@writefile{lot}{\addvspace {10\p@ }}
\@writefile{toc}{\contentsline {section}{\numberline {1.1}Copyright / Copyleft}{2}{section.1.1}}
\@writefile{toc}{\contentsline {chapter}{\numberline {2}Zealeov}{3}{chapter.2}}
\@writefile{lof}{\addvspace {10\p@ }}
\@writefile{lot}{\addvspace {10\p@ }}
\@writefile{toc}{\contentsline {section}{\numberline {2.1}Synopsis}{3}{section.2.1}}
\@writefile{toc}{\contentsline {paragraph}{presentation}{3}{section*.2}}
\@writefile{toc}{\contentsline {section}{\numberline {2.2}Interface}{3}{section.2.2}}
\@writefile{toc}{\contentsline {paragraph}{description}{3}{section*.3}}
\@writefile{toc}{\contentsline {subsection}{\numberline {2.2.1}Syntaxs}{3}{subsection.2.2.1}}
\@writefile{toc}{\contentsline {paragraph}{How to use Zealeov}{3}{section*.4}}
\@writefile{toc}{\contentsline {paragraph}{Use}{3}{section*.5}}
\@writefile{toc}{\contentsline {paragraph}{parameters}{4}{section*.6}}
\@writefile{toc}{\contentsline {subsection}{\numberline {2.2.2}Options}{4}{subsection.2.2.2}}
\@writefile{toc}{\contentsline {section}{\numberline {2.3}DataBase}{4}{section.2.3}}
\@writefile{toc}{\contentsline {paragraph}{Connect to database}{4}{section*.7}}
\@writefile{toc}{\contentsline {section}{\numberline {2.4}Logging}{4}{section.2.4}}
\@writefile{toc}{\contentsline {paragraph}{description}{4}{section*.8}}
\@writefile{toc}{\contentsline {chapter}{\numberline {3}Behaviors}{5}{chapter.3}}
\@writefile{lof}{\addvspace {10\p@ }}
\@writefile{lot}{\addvspace {10\p@ }}
\@writefile{toc}{\contentsline {section}{\numberline {3.1}Specificity}{5}{section.3.1}}
\@writefile{toc}{\contentsline {section}{\numberline {3.2}Requirement}{5}{section.3.2}}
\@writefile{toc}{\contentsline {section}{\numberline {3.3}Version}{5}{section.3.3}}
\@writefile{toc}{\contentsline {section}{\numberline {3.4}File}{6}{section.3.4}}
\@writefile{toc}{\contentsline {paragraph}{file repository}{6}{section*.9}}
\@writefile{toc}{\contentsline {section}{\numberline {3.5}Documentation}{6}{section.3.5}}
\@writefile{toc}{\contentsline {section}{\numberline {3.6}Licence and Copyright}{6}{section.3.6}}
